{
  "actions" : [ {
    "module" : "init",
    "date" : "2024-02-22T13:42:21.294460786Z",
    "properties" : {
      "packageName" : "com.mycompany.myapp",
      "projectName" : "JHipster Sample Application",
      "baseName" : "jhipsterSampleApplication",
      "serverPort" : 8080,
      "endOfLine" : "lf",
      "indentSize" : 2,
      "configurationFormat" : "yaml"
    }
  }, {
    "module" : "gradle-java",
    "date" : "2024-02-22T13:42:21.441848242Z",
    "properties" : {
      "packageName" : "com.mycompany.myapp",
      "projectName" : "JHipster Sample Application",
      "baseName" : "jhipsterSampleApplication",
      "serverPort" : 8080,
      "endOfLine" : "lf",
      "indentSize" : 2,
      "configurationFormat" : "yaml"
    }
  }, {
    "module" : "gitlab-ci-gradle",
    "date" : "2024-02-22T13:42:21.494848387Z",
    "properties" : {
      "packageName" : "com.mycompany.myapp",
      "projectName" : "JHipster Sample Application",
      "baseName" : "jhipsterSampleApplication",
      "serverPort" : 8080,
      "endOfLine" : "lf",
      "indentSize" : 2,
      "configurationFormat" : "yaml"
    }
  }, {
    "module" : "gradle-wrapper",
    "date" : "2024-02-22T13:42:21.536144548Z",
    "properties" : {
      "packageName" : "com.mycompany.myapp",
      "projectName" : "JHipster Sample Application",
      "baseName" : "jhipsterSampleApplication",
      "serverPort" : 8080,
      "endOfLine" : "lf",
      "indentSize" : 2,
      "configurationFormat" : "yaml"
    }
  }, {
    "module" : "java-base",
    "date" : "2024-02-22T13:42:21.614126194Z",
    "properties" : {
      "packageName" : "com.mycompany.myapp",
      "projectName" : "JHipster Sample Application",
      "baseName" : "jhipsterSampleApplication",
      "serverPort" : 8080,
      "endOfLine" : "lf",
      "indentSize" : 2,
      "configurationFormat" : "yaml"
    }
  }, {
    "module" : "spring-boot",
    "date" : "2024-02-22T13:42:21.793196665Z",
    "properties" : {
      "packageName" : "com.mycompany.myapp",
      "projectName" : "JHipster Sample Application",
      "baseName" : "jhipsterSampleApplication",
      "serverPort" : 8080,
      "endOfLine" : "lf",
      "indentSize" : 2,
      "configurationFormat" : "yaml"
    }
  }, {
    "module" : "spring-boot-mvc-empty",
    "date" : "2024-02-22T13:42:21.868675713Z",
    "properties" : {
      "packageName" : "com.mycompany.myapp",
      "projectName" : "JHipster Sample Application",
      "baseName" : "jhipsterSampleApplication",
      "serverPort" : 8080,
      "endOfLine" : "lf",
      "indentSize" : 2,
      "configurationFormat" : "yaml"
    }
  }, {
    "module" : "logs-spy",
    "date" : "2024-02-22T13:42:21.918860109Z",
    "properties" : {
      "packageName" : "com.mycompany.myapp",
      "projectName" : "JHipster Sample Application",
      "baseName" : "jhipsterSampleApplication",
      "serverPort" : 8080,
      "endOfLine" : "lf",
      "indentSize" : 2,
      "configurationFormat" : "yaml"
    }
  }, {
    "module" : "spring-boot-tomcat",
    "date" : "2024-02-22T13:42:22.012478041Z",
    "properties" : {
      "packageName" : "com.mycompany.myapp",
      "projectName" : "JHipster Sample Application",
      "baseName" : "jhipsterSampleApplication",
      "serverPort" : 8080,
      "endOfLine" : "lf",
      "indentSize" : 2,
      "configurationFormat" : "yaml"
    }
  } ]
}